<?xml version="1.0" encoding="utf-8"?>
<!-- Generator: Adobe Illustrator 18.1.1, SVG Export Plug-In . SVG Version: 6.00 Build 0)  -->
<!DOCTYPE svg PUBLIC "-//W3C//DTD SVG 1.1//EN" "http://www.w3.org/Graphics/SVG/1.1/DTD/svg11.dtd">
<svg version="1.1" id="Layer_1" xmlns="http://www.w3.org/2000/svg" xmlns:xlink="http://www.w3.org/1999/xlink" x="0px" y="0px"
	 width="48px" height="24px" viewBox="-87 21 48 24" enable-background="new -87 21 48 24" xml:space="preserve">
<g transform="translate(0, 0)">
	<polygon fill="#0E222B" points="-85,32 -83,30 -78,33 -67,25 -65,27 -78,40 	"/>
</g>
<g opacity="0.4">
	<polygon fill="#0E222B" points="-44.3,36.8 -48.2,33 -44.3,29.2 -47.2,26.3 -51,30.2 -54.8,26.3 -57.7,29.2 -53.8,33 -57.7,36.8
		-54.8,39.7 -51,35.8 -47.2,39.7 	"/>
</g>
</svg>
